{
  "ExternalFunctions": [
    {
      "Name": "Unity.Jobs.LowLevel.Unsafe.JobsUtility::GetWorkStealingRange",
      "FullName": "Unity.Jobs.LowLevel.Unsafe.JobsUtility.GetWorkStealingRange(ref Unity.Jobs.LowLevel.Unsafe.JobRanges ranges, int jobIndex, ref int beginIndex, ref int endIndex)_72EEAC320E5935AA"
    },
    {
      "Name": "Unity.Jobs.LowLevel.Unsafe.JobsUtility::PatchBufferMinMaxRanges",
      "FullName": "Unity.Jobs.LowLevel.Unsafe.JobsUtility.PatchBufferMinMaxRanges(System.IntPtr bufferRangePatchData, void* jobdata, int startIndex, int rangeSize)_9EB083F63620D8B8"
    },
    {
      "Name": "UnityEngine.Quaternion::LookRotation_Injected",
      "FullName": "UnityEngine.Quaternion.LookRotation_Injected(ref UnityEngine.Vector3 forward, ref UnityEngine.Vector3 upwards, ref UnityEngine.Quaternion ret)_C6F8690A306B42D9"
    },
    {
      "Name": "Unity.Collections.LowLevel.Unsafe.AtomicSafetyHandle::CheckReadAndThrowNoEarlyOut_Injected",
      "FullName": "Unity.Collections.LowLevel.Unsafe.AtomicSafetyHandle.CheckReadAndThrowNoEarlyOut_Injected(ref Unity.Collections.LowLevel.Unsafe.AtomicSafetyHandle handle)_5D0EA054F9B3B77F"
    },
    {
      "Name": "Unity.Collections.LowLevel.Unsafe.AtomicSafetyHandle::CheckWriteAndThrowNoEarlyOut_Injected",
      "FullName": "Unity.Collections.LowLevel.Unsafe.AtomicSafetyHandle.CheckWriteAndThrowNoEarlyOut_Injected(ref Unity.Collections.LowLevel.Unsafe.AtomicSafetyHandle handle)_BBB3C78A1E995A27"
    },
    {
      "Name": "burst_abort",
      "FullName": "unused.burst_abort(System.String errorId, System.String message)_C2EC9A829AFAD7DD"
    }
  ]
}